\relax 
\citation{sl-nlp2}
\citation{sts-dataset0}
\citation{bert-embd1}
\@writefile{lof}{\contentsline {figure}{\numberline {1}{\ignorespaces Simple Jaccard Similarity Test and TF-IDF based Cosine Similarity (in Jupyter Notebook)}}{1}}
\newlabel{f:SL}{{1}{1}}
\newlabel{cref@f:SL}{{[figure][1][]1}{1}}
\bibcite{sl-nlp}{1}
\bibcite{sl-nlp2}{2}
\bibcite{sts-dataset0}{3}
\bibcite{sts-dataset}{4}
\bibcite{bert-finetune}{5}
\bibcite{bert-embd1}{6}
\bibcite{bert-embd2}{7}
\bibcite{bert-embd3}{8}
\citation{STS3}
\citation{baseModel}
\citation{scikit}
\citation{baseSW}
\citation{colab}
\citation{tfgithub}
\citation{tfhub}
\bibcite{BERTfig}{1}
\bibcite{STS3}{2}
\bibcite{colab}{3}
\bibcite{baseSW}{4}
\bibcite{baseModel}{5}
\bibcite{scikit}{6}
\bibcite{tfhub}{7}
\bibcite{tfgithub}{8}
\@writefile{lof}{\contentsline {figure}{\numberline {2}{\ignorespaces Starting code for BERT Embedding in Jupyter Notebook}}{2}}
\newlabel{f:bertEm}{{2}{2}}
\newlabel{cref@f:bertEm}{{[figure][2][]2}{2}}
\@writefile{toc}{\contentsline {section}{\relax \fontsize  {14}{17pt}\selectfont  References}{2}}
\@writefile{toc}{\contentsline {section}{\relax \fontsize  {14}{17pt}\selectfont  References}{2}}
\citation{STS1}
\citation{STS2}
\citation{Wembedding}
\citation{NLP2}
\citation{DL1}
\citation{TL1,TL2}
\@writefile{lof}{\contentsline {figure}{\numberline {3}{\ignorespaces Applications of BERT-based Transfer Learning to Wide Spectrum of Subject Domains}}{3}}
\newlabel{f:TL}{{3}{3}}
\newlabel{cref@f:TL}{{[figure][3][]3}{3}}
\@writefile{lof}{\contentsline {figure}{\numberline {4}{\ignorespaces Transfer Learning using BERT}}{3}}
\newlabel{f:BERT}{{4}{3}}
\newlabel{cref@f:BERT}{{[figure][4][]4}{3}}
\bibcite{BERTfig}{1}
\bibcite{STS3}{2}
\bibcite{colab}{3}
\bibcite{baseSW}{4}
\bibcite{baseModel}{5}
\bibcite{scikit}{6}
\bibcite{tfhub}{7}
\bibcite{tfgithub}{8}
\bibcite{STS1}{9}
\bibcite{STS2}{10}
\bibcite{NLP2}{11}
\bibcite{Wembedding}{12}
\bibcite{DL1}{13}
\bibcite{STS2}{14}
\bibcite{Eval}{15}
\bibcite{TL1}{16}
\bibcite{TL2}{17}
\bibcite{1}{1}
\bibcite{2}{2}
\bibcite{3}{3}
\@writefile{toc}{\contentsline {section}{\relax \fontsize  {14}{17pt}\selectfont  References}{4}}
\@writefile{toc}{\contentsline {section}{\relax \fontsize  {14}{17pt}\selectfont  References}{4}}
