\relax 
\citation{STS1}
\citation{bert-finetune}
\citation{bert-embd2}
\citation{embed-service}
\citation{tfhub}
\citation{tf-idf}
\@writefile{lof}{\contentsline {figure}{\numberline {1}{\ignorespaces Use Cases : Semantic Similarity}}{1}}
\newlabel{f:useCases}{{1}{1}}
\newlabel{cref@f:useCases}{{[figure][1][]1}{1}}
\citation{BERT}
\citation{Attention}
\citation{colab}
\citation{bert-finetune}
\citation{tfhub}
\citation{embed-service}
\citation{qq}
\citation{n2}
\citation{Word2Vec}
\citation{USE}
\@writefile{lof}{\contentsline {figure}{\numberline {2}{\ignorespaces Overview of the problem statement}}{2}}
\newlabel{f:overview}{{2}{2}}
\newlabel{cref@f:overview}{{[figure][2][]2}{2}}
\@writefile{lof}{\contentsline {figure}{\numberline {3}{\ignorespaces Identification of main characters using TF-IDF from the text data}}{2}}
\newlabel{f:tf-idf}{{3}{2}}
\newlabel{cref@f:tf-idf}{{[figure][3][]3}{2}}
\@writefile{lof}{\contentsline {figure}{\numberline {4}{\ignorespaces Known solutions: two extreme features}}{2}}
\newlabel{f:knownSolutions.png}{{4}{2}}
\newlabel{cref@f:knownSolutions.png}{{[figure][4][]4}{2}}
\@writefile{lof}{\contentsline {figure}{\numberline {5}{\ignorespaces The state-of-art NLP model BERT: (top) detailed view of an encoder; (down) overall BERT architecture}}{2}}
\newlabel{f:bertArchitecture}{{5}{2}}
\newlabel{cref@f:bertArchitecture}{{[figure][5][]5}{2}}
\citation{FT}
\citation{bert-finetune}
\citation{colab}
\@writefile{lof}{\contentsline {figure}{\numberline {6}{\ignorespaces Proposed solutions: static vs. dynamic embeddings}}{3}}
\newlabel{f:embeddings}{{6}{3}}
\newlabel{cref@f:embeddings}{{[figure][6][]6}{3}}
\@writefile{lof}{\contentsline {figure}{\numberline {7}{\ignorespaces Best contextualized BERT embeddings}}{3}}
\newlabel{f:bertFineTuning}{{7}{3}}
\newlabel{cref@f:bertFineTuning}{{[figure][7][]7}{3}}
\@writefile{lof}{\contentsline {figure}{\numberline {8}{\ignorespaces Result on the sentence-level semantic similarity}}{3}}
\newlabel{f:implementation}{{8}{3}}
\newlabel{cref@f:implementation}{{[figure][8][]8}{3}}
\@writefile{lof}{\contentsline {figure}{\numberline {9}{\ignorespaces Overall structure of experiments}}{4}}
\newlabel{f:agenda}{{9}{4}}
\newlabel{cref@f:agenda}{{[figure][9][]9}{4}}
\@writefile{lof}{\contentsline {figure}{\numberline {10}{\ignorespaces Similarity metrics}}{4}}
\newlabel{f:simMetrics}{{10}{4}}
\newlabel{cref@f:simMetrics}{{[figure][10][]10}{4}}
\citation{PAWS}
\citation{PAWS}
\@writefile{lof}{\contentsline {figure}{\numberline {11}{\ignorespaces Result on the word-level semantic similarity}}{5}}
\newlabel{f:wordSemantics}{{11}{5}}
\newlabel{cref@f:wordSemantics}{{[figure][11][]11}{5}}
\@writefile{lof}{\contentsline {figure}{\numberline {12}{\ignorespaces Result on the sentence-level semantic similarity}}{5}}
\newlabel{f:sentenceSemantics}{{12}{5}}
\newlabel{cref@f:sentenceSemantics}{{[figure][12][]12}{5}}
\@writefile{lof}{\contentsline {figure}{\numberline {13}{\ignorespaces Result on the Semantic Quora Question Search}}{5}}
\newlabel{f:engine}{{13}{5}}
\newlabel{cref@f:engine}{{[figure][13][]13}{5}}
\bibcite{STS1}{1}
\bibcite{tf-idf}{2}
\bibcite{bert-finetune}{3}
\bibcite{bert-embd2}{4}
\bibcite{embed-service}{5}
\bibcite{tfhub}{6}
\bibcite{BERT}{7}
\bibcite{Attention}{8}
\bibcite{colab}{9}
\bibcite{qq}{10}
\bibcite{n2}{11}
\bibcite{Word2Vec}{12}
\bibcite{USE}{13}
\bibcite{FT}{14}
\bibcite{PAWS}{15}
\@writefile{lof}{\contentsline {figure}{\numberline {14}{\ignorespaces (top) Paraphrase Adversaries from Word Scrambling; (bottom) improved STS results. Reference: \cite  {PAWS}}}{6}}
\newlabel{f:PAWS}{{14}{6}}
\newlabel{cref@f:PAWS}{{[figure][14][]14}{6}}
\@writefile{toc}{\contentsline {section}{\relax \fontsize  {14}{17pt}\selectfont  References}{6}}
